{
  "project_info": {
    "project_number": "554591948186",
    "firebase_url": "https://transform-e9de7.firebaseio.com",
    "project_id": "transform-e9de7",
    "storage_bucket": "transform-e9de7.appspot.com"
  },
  "client": [
    {
      "client_info": {
        "mobilesdk_app_id": "1:554591948186:android:7a2d7cb2acd8913944be23",
        "android_client_info": {
          "package_name": "com.transformfitness"
        }
      },
      "oauth_client": [
        {
          "client_id": "554591948186-8sqmefbb0ir5hppe2ip289smbdkkc42a.apps.googleusercontent.com",
          "client_type": 3
        }
      ],
      "api_key": [
        {
          "current_key": "AIzaSyD6-xTfTwr-IzVcm14gn1ULcGNsDrZJQEk"
        }
      ],
      "services": {
        "appinvite_service": {
          "other_platform_oauth_client": [
            {
              "client_id": "554591948186-8sqmefbb0ir5hppe2ip289smbdkkc42a.apps.googleusercontent.com",
              "client_type": 3
            },
            {
              "client_id": "554591948186-h1lsnsm8ed8dpgntft0ug4hovrqilu5l.apps.googleusercontent.com",
              "client_type": 2,
              "ios_info": {
                "bundle_id": "com.transformfitness"
              }
            }
          ]
        }
      }
    }
  ],
  "configuration_version": "1"
}